…
## 텍스트 기본통계분석

형성한 리뷰 데이터프레임들을 가지고 토큰화, 불용어 처리, 그리고 단어빈도
통계(그래프, 워드클라우드)를 실시하였다.

### 영화 <라라랜드>의 기본통계분석

``` r
tidy_lll <- lalaland %>% group_by(tomatometer, year) %>%
  unnest_tokens(word, review) %>%
  anti_join(stop_words) %>% ungroup(); tidy_lll
```

    # A tibble: 5,171 x 3
       tomatometer year       word         
       <chr>       <chr>      <chr>        
     1 fresh       after 2016 simple       
     2 fresh       after 2016 tale         
     3 fresh       after 2016 told         
     4 fresh       after 2016 visual       
     5 fresh       after 2016 inventiveness
     6 fresh       after 2016 reminds      
     7 fresh       after 2016 audience     
     8 fresh       after 2016 power        
     9 fresh       after 2016 inherent     
    10 fresh       after 2016 cinema       
    # ... with 5,161 more rows

``` r
tidy_lll %>% count(word, sort = T)
```

    # A tibble: 2,104 x 2
       word          n
       <chr>     <int>
     1 la          364
     2 land        173
     3 musical     100
     4 film         87
     5 movie        76
     6 love         68
     7 hollywood    49
     8 chazelle     48
     9 review       47
    10 spanish      44
    # ... with 2,094 more rows

``` r
freq_lll <- tidy_lll %>% count(word, sort = T) %>%
  mutate(percent = n / sum(n) * 100);freq_lll
```

    # A tibble: 2,104 x 3
       word          n percent
       <chr>     <int>   <dbl>
     1 la          364   7.04 
     2 land        173   3.35 
     3 musical     100   1.93 
     4 film         87   1.68 
     5 movie        76   1.47 
     6 love         68   1.32 
     7 hollywood    49   0.948
     8 chazelle     48   0.928
     9 review       47   0.909
    10 spanish      44   0.851
    # ... with 2,094 more rows
…
### 영화 <주토피아>의 기본통계분석

``` r
tidy_zoo <- zootopia %>% group_by(tomatometer, year) %>%
  unnest_tokens(output = word, input = review) %>%
  anti_join(stop_words, by = "word") %>% ungroup(); tidy_zoo
```

    # A tibble: 3,115 x 3
       tomatometer year       word      
       <chr>       <chr>      <chr>     
     1 fresh       after 2016 provoking 
     2 fresh       after 2016 funny     
     3 fresh       after 2016 time      
     4 fresh       after 2016 reveal    
     5 fresh       after 2016 genius    
     6 fresh       after 2016 abundance 
     7 fresh       after 2016 humor     
     8 fresh       after 2016 action    
     9 fresh       after 2016 mask      
    10 fresh       after 2016 underlying
    # ... with 3,105 more rows

``` r
tidy_zoo %>% count(word, sort = T)
```

    # A tibble: 1,515 x 2
       word         n
       <chr>    <int>
     1 zootopia   100
     2 film        57
     3 disney      50
     4 animated    46
     5 movie       33
     6 message     32
     7 kids        25
     8 review      25
     9 world       24
    10 fun         22
    # ... with 1,505 more rows

``` r
freq_zoo <- tidy_zoo %>% count(word, sort = T) %>%
  mutate(percent = n / sum(n) * 100); freq_zoo
```

    # A tibble: 1,515 x 3
       word         n percent
       <chr>    <int>   <dbl>
     1 zootopia   100   3.21 
     2 film        57   1.83 
     3 disney      50   1.61 
     4 animated    46   1.48 
     5 movie       33   1.06 
     6 message     32   1.03 
     7 kids        25   0.803
     8 review      25   0.803
     9 world       24   0.770
    10 fun         22   0.706
    # ... with 1,505 more rows
…
### 영화 <부산행>의 기본통계분석

``` r
tidy_busan <- busantrain %>% group_by(tomatometer, year) %>%
  unnest_tokens(output = word, input = review) %>%
  anti_join(stop_words, by = "word") %>% ungroup(); tidy_busan
```

    # A tibble: 1,355 x 3
       tomatometer year       word         
       <chr>       <chr>      <chr>        
     1 fresh       after 2016 sound        
     2 fresh       after 2016 design       
     3 fresh       after 2016 extra        
     4 fresh       after 2016 level        
     5 fresh       after 2016 predominantly
     6 fresh       after 2016 horror       
     7 fresh       after 2016 concepts     
     8 fresh       after 2016 wisely       
     9 fresh       after 2016 double       
    10 fresh       after 2016 opportunities
    # ... with 1,345 more rows

``` r
tidy_busan %>% count(word, sort = T)
```

    # A tibble: 791 x 2
       word        n
       <chr>   <int>
     1 train      48
     2 busan      36
     3 zombie     33
     4 film       27
     5 yeon       22
     6 review     21
     7 spanish    20
     8 action     16
     9 sang       16
    10 ho         13
    # ... with 781 more rows

``` r
freq_busan <- tidy_busan %>% count(word, sort = T) %>%
  mutate(percent = n / sum(n) * 100); freq_busan
```

    # A tibble: 791 x 3
       word        n percent
       <chr>   <int>   <dbl>
     1 train      48   3.54 
     2 busan      36   2.66 
     3 zombie     33   2.44 
     4 film       27   1.99 
     5 yeon       22   1.62 
     6 review     21   1.55 
     7 spanish    20   1.48 
     8 action     16   1.18 
     9 sang       16   1.18 
    10 ho         13   0.959
    # ... with 781 more rows
…
    # A tibble: 2 x 4
      tomatometer negative positive  sent
      <chr>          <int>    <int> <int>
    1 fresh            230      775   545
    2 rotten            40       39    -1

``` r
sent_ll_nrc <- tidy_lll %>% inner_join(get_sentiments("nrc"), by = "word"); sent_ll_nrc
```

    # A tibble: 4,002 x 4
       tomatometer year       word     sentiment   
       <chr>       <chr>      <chr>    <chr>       
     1 fresh       after 2016 tale     positive    
     2 fresh       after 2016 audience anticipation
     3 rotten      after 2016 team     trust       
     4 rotten      after 2016 sizzle   anger       
     5 rotten      after 2016 crazy    anger       
     6 rotten      after 2016 crazy    fear        
     7 rotten      after 2016 crazy    negative    
     8 rotten      after 2016 crazy    sadness     
     9 rotten      after 2016 stupid   negative    
    10 rotten      after 2016 love     joy         
    # ... with 3,992 more rows
…
    # A tibble: 2 x 12
      tomatometer anger anticipation disgust  fear   joy negative positive sadness
      <chr>       <int>        <int>   <int> <int> <int>    <int>    <int>   <int>
    1 fresh         203          441      56   125   594      230     1043     260
    2 rotten         17           36       6    11    44       21       96      22
    # ... with 3 more variables: surprise <int>, trust <int>, sent <int>

``` r
sent_lala_afinn <- tidy_lll %>%
inner_join(get_sentiments("afinn"), by = "word") %>%
  count(tomatometer, word, wt = value, sort = T)
sent_lala_afinn
```

    # A tibble: 354 x 3
       tomatometer word          n
       <chr>       <chr>     <dbl>
     1 fresh       love        192
     2 fresh       romance      38
     3 fresh       beautiful    36
     4 fresh       fun          36
     5 fresh       perfect      33
     6 fresh       wonderful    32
     7 fresh       joy          27
     8 fresh       joyous       24
     9 fresh       vibrant      24
    10 fresh       charm        21
    # ... with 344 more rows
…
    # A tibble: 2 x 12
      tomatometer anger anticipation disgust  fear   joy negative positive sadness
      <chr>       <int>        <int>   <int> <int> <int>    <int>    <int>   <int>
    1 fresh          68          193      38    81   260      126      547      41
    2 rotten          1            5       3     3     4        3        6       2
    # ... with 3 more variables: surprise <int>, trust <int>, sent <int>

``` r
sent_zooto_afinn <- tidy_zoo %>%
inner_join(get_sentiments("afinn"), by = "word") %>%
  count(tomatometer, word, wt = value, sort = T)
sent_zooto_afinn
```

    # A tibble: 203 x 3
       tomatometer word             n
       <chr>       <chr>        <dbl>
     1 fresh       fun             84
     2 fresh       funny           80
     3 fresh       clever          32
     4 fresh       entertaining    26
     5 fresh       charming        21
     6 fresh       perfect         18
     7 fresh       wonderful       16
     8 fresh       humor           14
     9 fresh       comedy          13
    10 fresh       adorable        12
    # ... with 193 more rows
…
    # A tibble: 2 x 12
      tomatometer anger anticipation disgust  fear   joy negative positive sadness
      <chr>       <int>        <int>   <int> <int> <int>    <int>    <int>   <int>
    1 fresh          72           60      59    81    56      116      164      61
    2 rotten          1            1       0     1     4        2        8       0
    # ... with 3 more variables: surprise <int>, trust <int>, sent <int>

``` r
sent_busan_afinn <- tidy_busan %>%
inner_join(get_sentiments("afinn"), by = "word") %>%
  count(tomatometer, word, wt = value, sort = T)
sent_busan_afinn
```

    # A tibble: 104 x 3
       tomatometer word             n
       <chr>       <chr>        <dbl>
     1 fresh       fun             20
     2 fresh       entertaining    12
     3 fresh       exciting        12
     4 fresh       fantastic       12
     5 fresh       funny            8
     6 fresh       blockbuster      6
     7 fresh       effective        6
     8 fresh       top              6
     9 fresh       care             4
    10 fresh       celebrating      3
    # ... with 94 more rows
…
    sentiment
     negative  positive 
     1.982778 -1.982778 

### 가장 빈번한 긍/부정 단어 파악 (Bing 사전)

``` r
# <라라랜드>
sent_lala %>% count(word, sentiment, sort=T)
```

    # A tibble: 519 x 3
       word      sentiment     n
       <chr>     <chr>     <int>
     1 love      positive     68
     2 classic   positive     21
     3 magic     positive     18
     4 modern    positive     18
     5 romantic  positive     18
     6 magical   positive     14
     7 beautiful positive     12
     8 perfect   positive     11
     9 gorgeous  positive     10
    10 homage    positive     10
    # ... with 509 more rows
…
``` r
# <주토피아>
sent_zoo %>% count(word, sentiment, sort=T)
```

    # A tibble: 349 x 3
       word         sentiment     n
       <chr>        <chr>     <int>
     1 fun          positive     22
     2 funny        negative     20
     3 clever       positive     16
     4 classic      positive     14
     5 entertaining positive     13
     6 prejudice    negative     11
     7 issues       negative     10
     8 timely       positive     10
     9 smart        positive      9
    10 charming     positive      7
    # ... with 339 more rows
…
``` r
# <부산행>
sent_busan %>% count(word, sentiment, sort=T)
```

    # A tibble: 188 x 3
       word         sentiment     n
       <chr>        <chr>     <int>
     1 zombie       negative     33
     2 entertaining positive      6
     3 bloody       negative      5
     4 fun          positive      5
     5 exciting     positive      4
     6 tension      negative      4
     7 apocalypse   negative      3
     8 dead         negative      3
     9 effective    positive      3
    10 fans         positive      3
    # ... with 178 more rows
…
